{
    "app_name": "Vulnerable Angular JS App",
    "obj_id": "ID",
    "obj_name": "Name",
    "obj_bool": "Is True?",
    "obj_int": "Number",
    "del_obj": "Delete",
    "new_obj": "New Object",
    "create": "Create",
    "cancel": "Cancel",
    "new": "New"
}